Social Media Analytics and Research - Week 11 Lab
…
vax_g %>%
  activate(nodes) %>%
  mutate(community = as.factor(group_walktrap())) %>%
  as_tibble() %>%
  filter(community == 1) %>%
  select(name, community)

# A tibble: 41 × 2
   name            community
   <chr>           <fct>    
 1 and_kell        1        
 2 avoiceforchoice 1        
 3 BardsFM         1        
 4 BusyDrT         1        
 5 ceestave        1        
 6 Chena_Punim     1        
 7 chris_moyler    1        
 8 circleofmamas   1        
 9 Crazymothers1   1        
10 davebrooker322  1        
# … with 31 more rows
…
vax_g %>%
  activate(nodes) %>%
  mutate(coreness = node_coreness()) %>%
  as_tibble() %>%
  filter(coreness == 20) %>%
  select(name, coreness)

# A tibble: 46 × 2
   name           coreness
   <chr>             <dbl>
 1 1pissedoffmom1       20
 2 and_kell             20
 3 BusyDrT              20
 4 CasparKashkin        20
 5 ceestave             20
 6 ChildrensHD          20
 7 chris_moyler         20
 8 Crazymothers1        20
 9 davebrooker322       20
10 delbigtree           20
# … with 36 more rows
…
